<?xml version="1.0" encoding="utf-8"?>
<!-- Generator: Adobe Illustrator 24.0.2, SVG Export Plug-In . SVG Version: 6.00 Build 0)  -->
<svg version="1.1" id="Capa_1" xmlns="http://www.w3.org/2000/svg" xmlns:xlink="http://www.w3.org/1999/xlink" x="0px" y="0px"
	 viewBox="0 0 352.3 352.3" style="enable-background:new 0 0 352.3 352.3;" xml:space="preserve">
<g>
	<g id="Guides_For_Artboard_10_">
	</g>
	<g id="Artwork_10_">
	</g>
	<g id="Layer_2_10_">
		<path style="fill:#216E8A;" d="M348.6,170.5c-2.8-3.3-7-5.4-11.3-5.4l-29.2,0.4l-10.2,0.1l33.7,161.9l20.6-145.1
			C352.7,178.2,351.5,173.8,348.6,170.5z"/>
		<g>
			<path style="fill:#BAD6DD;" d="M135.2,125.5l18.2,21.6H260c3.5,0,6.4,2.3,7.8,5.4h15.6c7.7,0,14.3,5.5,15.5,13.2l9.2,50.4V59.6h-0.8h-29
				c-12.4,0-22.4-10-22.4-22.4l0.8-29.8l25.7,26.5L256.7,7.4h-56.6h-85.6c-12.4,0-22.4,10-22.4,22.4v86.5h23.7
				C123.3,116.3,130.4,119.9,135.2,125.5z M143.2,65.2h119.6c4.7,0,8.5,4.2,8.5,8.9c0,4.7-3.8,8.9-8.5,8.9H143.2
				c-4.7,0-8.5-4.2-8.5-8.9C134.7,69.4,138.5,65.2,143.2,65.2z M143.2,107.1h119.6c4.7,0,8.5,4.2,8.5,8.9c0,4.7-3.8,8.9-8.5,8.9
				H143.2c-4.7,0-8.5-4.2-8.5-8.9C134.7,111.4,138.5,107.1,143.2,107.1z"/>
			<path style="fill:#A3C3CE;" d="M143.2,83.1h119.6c4.7,0,8.5-4.2,8.5-8.9c0-4.7-3.8-8.9-8.5-8.9H143.2c-4.7,0-8.5,4.2-8.5,8.9
				C134.7,78.8,138.5,83.1,143.2,83.1z"/>
			<path style="fill:#A3C3CE;" d="M143.2,125h119.6c4.7,0,8.5-4.2,8.5-8.9c0-4.7-3.8-8.9-8.5-8.9H143.2c-4.7,0-8.5,4.2-8.5,8.9
				C134.7,120.8,138.5,125,143.2,125z"/>
			<path style="fill:#A3C3CE;" d="M260,147.1H153.4l4.6,5.4h109.8C266.4,149.4,263.4,147.1,260,147.1z"/>
			<path style="fill:#216E8A;" d="M298.8,165.7c-1.1-7.7-7.7-13.2-15.5-13.2h-15.6H158l-4.6-5.4l-18.2-21.6c-4.8-5.7-11.9-9.2-19.4-9.2H92.1
				H34.3c-5.8,0-11.3,2.7-15.1,7.2c-3.7,4.5-5.3,10.6-4.4,16.3l2.2,12.7h-1.4c-4.6,0-8.9,1.8-11.8,5.3c-3,3.5-4.3,8-3.6,12.5
				l33.1,157.4c1.5,9.9,10,17.1,20,17.1H316c4.6,0,8.9-2,11.8-5.4c3-3.5,4.3-7.9,3.6-12.4l-0.1-0.3L298.8,165.7z M222.1,301.5
				l-7.5,5.4l-1.1,0.8c-6.9,4.9-17,5.1-22.8,0.5l-20.8-18.8l-23.6,21.1c-6.1,4.8-16.2,5.1-22.8,0.4l-8.3-5.7c-7-5-8.1-13.4-2.1-19
				l21.3-23.3l-15.1-14.7c-8.3-6.6-9.7-17.9-2.8-25.4l1.2-1.3l7.5-8.1c7.5-8.1,20.7-8.5,29.1-0.7l17.5,13.3l18.9-12.6
				c8.8-8.1,22-8.4,29-0.6l8.1,9.1c6.5,7.2,4.3,18.6-4.3,25.5l-16.4,14l18.2,21.2C231,287.7,229.4,296.3,222.1,301.5z"/>
			<path style="fill:#F7F1E6;" d="M207,261.3l16.4-14c8.6-6.9,10.8-18.3,4.3-25.5l-8.1-9.1c-6.9-7.8-20.1-7.5-29,0.6L171.7,226l-17.5-13.3
				c-8.3-7.8-21.6-7.4-29.1,0.7l-7.5,8.1l-1.2,1.3c-6.9,7.5-5.4,18.9,2.8,25.4l15.1,14.7l-21.3,23.3c-6.1,5.6-4.9,14,2.1,19l8.3,5.7
				c6.6,4.6,16.7,4.4,22.8-0.4l23.6-21.1l20.8,18.8c5.8,4.6,15.9,4.4,22.8-0.5l1.1-0.8l7.5-5.4c7.3-5.2,8.9-13.8,3.2-19L207,261.3z"
				/>
			<path style="fill:#A3C3CE;" d="M255.9,37.2c0,12.4,10,22.4,22.4,22.4h29h0.8l-25.7-25.7L256.7,7.4L255.9,37.2z"/>
		</g>
	</g>
</g>
</svg>
