{
  "events": [
    {
      "event": "Primary care visit",
      "services": ["Primary care visit to treat an injury or illness"],
      "youPay": [
        "$30 copay/office visit and 30% coinsurance for other outpatient services."
      ]
    },
    {
      "event": "If you visit a health care provider’s office or clinic",
      "services": [
        "Specialist visit",
        "Preventive care/screening/ immunization"
      ],
      "youPay": [
        "$30 copay/office visit and 30% coinsurance for other outpatient services.",
        "No charge for covered services."
      ]
    },
    {
      "event": "If you have a test",
      "services": [
        "Diagnostic test (x-ray, blood work)",
        "Imaging (CT/PET scans, MRIs)"
      ],
      "youPay": [
        "0% coinsurance up to $500, then 30% coinsurance",
        "$300 copay/procedure"
      ]
    },
    {
      "event": "If you need drugs to treat your illness or condition",
      "services": ["Generic drugs (Tier 1)", "Preferred brand drugs (Tier 2)"],
      "youPay": [
        "$15 copay/prescription (retail), $30 copay/prescription (mail order)",
        "$50 copay/prescription (retail), $125 copay/prescription (mail order)"
      ]
    },
    {
      "event": "More information about prescription drug  coverage is available at TrustmarkSB.com",
      "services": [
        "Non-preferred brand drugs (Tier 3)",
        "Specialty drugs (Tier 4)"
      ],
      "youPay": [
        "$80 copay/prescription (retail), $240 copay/prescription (mail order)",
        "$200 copay/prescription (retail)"
      ]
    },
    {
      "event": "If you have outpatient surgery",
      "services": [
        "Facility fee (e.g., ambulatory surgery center)",
        "Physician/surgeon fees"
      ],
      "youPay": ["30% coinsurance", "30% coinsurance"]
    },
    {
      "event": "If you need immediate medical attention",
      "services": [
        "Emergency room care",
        "Emergency medical transportation",
        "Urgent care"
      ],
      "youPay": ["$500 copay/visit", "30% coinsurance", "$60 copay/visit"]
    },
    {
      "event": "If you have a hospital stay",
      "services": [
        "Facility fee (e.g., hospital room)",
        "Physician/surgeon fees"
      ],
      "youPay": ["30% coinsurance", "30% coinsurance"]
    },
    {
      "event": "If you need mental health, behavioral health, or substance abuse services",
      "services": ["Outpatient services", "Inpatient services"],
      "youPay": ["30% coinsurance", "30% coinsurance"]
    },
    {
      "event": "If you are pregnant",
      "services": [
        "Office Visits",
        "Childbirth/delivery professional services",
        "Childbirth/delivery facility services"
      ],
      "youPay": [
        "0% coinsurance routine prenatal visits, other services not covered",
        "Not covered",
        "Not covered"
      ]
    },
    {
      "event": "If you need help recovering or have other special health needs",
      "services": [
        "Home health care",
        "Rehabilitation services",
        "Habilitation services",
        "Skilled nursing care",
        "Durable medical equipment",
        "Hospice services"
      ],
      "youPay": [
        "30% coinsurance",
        "30% coinsurance",
        "30% coinsurance",
        "30% coinsurance",
        "30% coinsurance",
        "30% coinsurance"
      ]
    },
    {
      "event": "If your child needs dental or eye care",
      "services": [
        "Children’s eye exam",
        "Children’s glasses",
        "Children’s dental check-up"
      ],
      "youPay": [
        "Routine vision screening: No charge. Other services, including routine eye exam: Not covered.",
        "Not covered",
        "Not covered"
      ]
    }
  ]
}
